Covid_data_analysis
…
task2: find the top 5 countries which have the most total cases

new_cases_by_country <- cases_daily %>%
  select(c(-1, -3, -4)) %>%
  group_by(`Country/Region`) %>%
  summarise(across(where(is.numeric), ~ sum(.x, na.rm = TRUE)))

new_cases_by_country %>% 
  rowwise(`Country/Region`) %>% 
  summarise(total_cases = sum(c_across(`1/22/20`:`3/20/22`)))

## `summarise()` has grouped output by 'Country/Region'. You can override using the `.groups` argument.

## # A tibble: 198 x 2
## # Groups:   Country/Region [198]
##    `Country/Region`    total_cases
##    <chr>                     <dbl>
##  1 Afghanistan            61230816
##  2 Albania                74991950
##  3 Algeria                87521851
##  4 Andorra                 8517031
##  5 Angola                 23748402
##  6 Antarctica                 1067
##  7 Antigua and Barbuda     1231678
##  8 Argentina            2231807200
##  9 Armenia               131398110
## 10 Australia             238215182
## # ... with 188 more rows
…
